…
``` r
write_csv(gapminder_lifeExp_arr, "gapminder_lifeExp_arr.csv")

read_csv("gapminder_lifeExp_arr.csv")
```

    ## Parsed with column specification:
    ## cols(
    ##   continent = col_character(),
    ##   year = col_integer(),
    ##   mean_gdp = col_double()
    ## )

    ## # A tibble: 60 x 3
    ##    continent  year mean_gdp
    ##    <chr>     <int>    <dbl>
    ##  1 Africa     1952     39.1
    ##  2 Africa     1957     41.3
    ##  3 Africa     1962     43.3
    ##  4 Africa     1967     45.3
    ##  5 Asia       1952     46.3
    ##  6 Africa     1972     47.5
    ##  7 Asia       1957     49.3
    ##  8 Africa     1977     49.6
    ##  9 Asia       1962     51.6
    ## 10 Africa     1982     51.6
    ## # ... with 50 more rows
…
